1,1,3,заочная,Системное и прикладное программное обеспечение,бюджет,09.04.04 Программная инженерия,новый,True
2,2,1,заочная,Программирование и интернет-технологии,контракт,09.04.04 Программная инженерия,старый,True
3,3,16,очная,Системное и прикладное программное обеспечение,контракт,09.04.04 Программная инженерия,новый,True
4,4,24,заочная,Программирование и интернет-технологии,контракт,09.04.04 Программная инженерия,новый,True
5,5,3,заочная,Системное и прикладное программное обеспечение,контракт,09.04.04 Программная инженерия,старый,True
6,6,15,заочная,Системное и прикладное программное обеспечение,контракт,09.04.04 Программная инженерия,новый,True
7,7,7,очная,Программирование и интернет-технологии,бюджет,09.04.04 Программная инженерия,новый,True
8,8,3,заочная,Системное и прикладное программное обеспечение,бюджет,09.04.04 Программная инженерия,новый,True
9,9,24,очная,Программирование и интернет-технологии,контракт,09.04.04 Программная инженерия,старый,True
10,10,23,заочная,Системное и прикладное программное обеспечение,бюджет,09.04.04 Программная инженерия,старый,True
11,11,25,заочная,Системное и прикладное программное обеспечение,контракт,09.04.04 Программная инженерия,новый,True
12,12,25,заочная,Программирование и интернет-технологии,контракт,09.04.04 Программная инженерия,новый,True
13,13,10,заочная,Программирование и интернет-технологии,бюджет,09.04.04 Программная инженерия,старый,True
14,14,2,заочная,Программирование и интернет-технологии,контракт,09.04.04 Программная инженерия,новый,True
15,15,23,заочная,Системное и прикладное программное обеспечение,контракт,09.04.04 Программная инженерия,новый,True
16,16,19,заочная,Программирование и интернет-технологии,контракт,09.04.04 Программная инженерия,старый,True
17,17,18,заочная,Программирование и интернет-технологии,контракт,09.04.04 Программная инженерия,новый,True
18,18,19,заочная,Системное и прикладное программное обеспечение,бюджет,09.04.04 Программная инженерия,старый,True
19,19,21,очная,Системное и прикладное программное обеспечение,контракт,09.04.04 Программная инженерия,новый,True
20,20,10,очная,Программирование и интернет-технологии,бюджет,09.04.04 Программная инженерия,новый,True
21,21,9,заочная,Программирование и интернет-технологии,контракт,09.04.04 Программная инженерия,старый,True
22,22,16,заочная,Системное и прикладное программное обеспечение,контракт,09.04.04 Программная инженерия,новый,True
23,23,8,очная,Программирование и интернет-технологии,бюджет,09.04.04 Программная инженерия,новый,True
24,24,25,очная,Программирование и интернет-технологии,бюджет,09.04.04 Программная инженерия,новый,True
25,25,1,очная,Системное и прикладное программное обеспечение,контракт,09.04.04 Программная инженерия,новый,True
26,26,19,заочная,Программирование и интернет-технологии,бюджет,09.04.04 Программная инженерия,новый,True
27,27,2,заочная,Программирование и интернет-технологии,контракт,09.04.04 Программная инженерия,старый,True
28,28,5,очная,Системное и прикладное программное обеспечение,контракт,09.04.04 Программная инженерия,старый,True
29,29,25,заочная,Системное и прикладное программное обеспечение,бюджет,09.04.04 Программная инженерия,новый,True
30,30,22,заочная,Системное и прикладное программное обеспечение,контракт,09.04.04 Программная инженерия,новый,True
31,31,16,очная,Программирование и интернет-технологии,контракт,09.04.04 Программная инженерия,новый,True
32,32,11,очная,Системное и прикладное программное обеспечение,контракт,09.04.04 Программная инженерия,новый,True
33,33,4,заочная,Программирование и интернет-технологии,контракт,09.04.04 Программная инженерия,старый,True
34,34,6,очная,Системное и прикладное программное обеспечение,бюджет,09.04.04 Программная инженерия,старый,True
35,35,19,очная,Программирование и интернет-технологии,контракт,09.04.04 Программная инженерия,новый,True
36,36,24,заочная,Системное и прикладное программное обеспечение,бюджет,09.04.04 Программная инженерия,новый,True
37,37,23,заочная,Системное и прикладное программное обеспечение,бюджет,09.04.04 Программная инженерия,новый,True
38,38,14,заочная,Программирование и интернет-технологии,бюджет,09.04.04 Программная инженерия,новый,True
39,39,19,очная,Программирование и интернет-технологии,бюджет,09.04.04 Программная инженерия,новый,True
40,40,16,заочная,Системное и прикладное программное обеспечение,бюджет,09.04.04 Программная инженерия,новый,True
41,41,10,заочная,Системное и прикладное программное обеспечение,контракт,09.04.04 Программная инженерия,новый,True
42,42,21,заочная,Программирование и интернет-технологии,бюджет,09.04.04 Программная инженерия,новый,True
43,43,11,очная,Системное и прикладное программное обеспечение,контракт,09.04.04 Программная инженерия,новый,True
44,44,9,очная,Программирование и интернет-технологии,контракт,09.04.04 Программная инженерия,старый,True
45,45,17,заочная,Системное и прикладное программное обеспечение,бюджет,09.04.04 Программная инженерия,новый,True
46,46,11,заочная,Системное и прикладное программное обеспечение,контракт,09.04.04 Программная инженерия,старый,True
47,47,6,заочная,Программирование и интернет-технологии,контракт,09.04.04 Программная инженерия,старый,True
48,48,1,заочная,Программирование и интернет-технологии,бюджет,09.04.04 Программная инженерия,новый,True
49,49,20,заочная,Программирование и интернет-технологии,бюджет,09.04.04 Программная инженерия,новый,True
50,50,23,заочная,Системное и прикладное программное обеспечение,бюджет,09.04.04 Программная инженерия,старый,True
51,0,1,очная,Программирование и интернет-технологии,бюджет,09.04.04 Программная инженерия,старый,False
52,0,19,очная,Программирование и интернет-технологии,бюджет,09.04.04 Программная инженерия,новый,False
53,0,20,заочная,Системное и прикладное программное обеспечение,контракт,09.04.04 Программная инженерия,новый,False
54,0,21,очная,Системное и прикладное программное обеспечение,контракт,09.04.04 Программная инженерия,старый,False
55,0,8,заочная,Программирование и интернет-технологии,контракт,09.04.04 Программная инженерия,старый,False
56,0,11,очная,Программирование и интернет-технологии,контракт,09.04.04 Программная инженерия,новый,False
57,0,21,очная,Программирование и интернет-технологии,контракт,09.04.04 Программная инженерия,новый,False
58,0,23,заочная,Программирование и интернет-технологии,контракт,09.04.04 Программная инженерия,новый,False
59,0,11,очная,Системное и прикладное программное обеспечение,бюджет,09.04.04 Программная инженерия,новый,False
60,0,17,заочная,Системное и прикладное программное обеспечение,контракт,09.04.04 Программная инженерия,старый,False
61,0,1,очная,Системное и прикладное программное обеспечение,бюджет,09.04.04 Программная инженерия,старый,False
62,0,11,очная,Системное и прикладное программное обеспечение,контракт,09.04.04 Программная инженерия,новый,False
63,0,8,заочная,Системное и прикладное программное обеспечение,контракт,09.04.04 Программная инженерия,новый,False
64,0,8,очная,Системное и прикладное программное обеспечение,бюджет,09.04.04 Программная инженерия,старый,False
65,0,1,очная,Системное и прикладное программное обеспечение,контракт,09.04.04 Программная инженерия,старый,False
66,0,21,очная,Программирование и интернет-технологии,контракт,09.04.04 Программная инженерия,новый,False
67,0,21,очная,Программирование и интернет-технологии,бюджет,09.04.04 Программная инженерия,старый,False
68,0,24,заочная,Системное и прикладное программное обеспечение,бюджет,09.04.04 Программная инженерия,старый,False
69,0,8,очная,Программирование и интернет-технологии,контракт,09.04.04 Программная инженерия,новый,False
70,0,11,очная,Программирование и интернет-технологии,контракт,09.04.04 Программная инженерия,новый,False
71,0,22,заочная,Программирование и интернет-технологии,бюджет,09.04.04 Программная инженерия,новый,False
72,0,11,очная,Программирование и интернет-технологии,бюджет,09.04.04 Программная инженерия,старый,False
73,0,15,заочная,Программирование и интернет-технологии,контракт,09.04.04 Программная инженерия,новый,False
74,0,13,заочная,Системное и прикладное программное обеспечение,контракт,09.04.04 Программная инженерия,новый,False
75,0,11,очная,Системное и прикладное программное обеспечение,контракт,09.04.04 Программная инженерия,новый,False
76,0,21,заочная,Программирование и интернет-технологии,бюджет,09.04.04 Программная инженерия,старый,False
77,0,21,заочная,Программирование и интернет-технологии,контракт,09.04.04 Программная инженерия,новый,False
78,0,12,заочная,Программирование и интернет-технологии,бюджет,09.04.04 Программная инженерия,новый,False
79,0,14,заочная,Системное и прикладное программное обеспечение,контракт,09.04.04 Программная инженерия,новый,False
80,0,1,очная,Системное и прикладное программное обеспечение,контракт,09.04.04 Программная инженерия,новый,False
81,0,11,очная,Программирование и интернет-технологии,бюджет,09.04.04 Программная инженерия,старый,False
82,0,10,очная,Системное и прикладное программное обеспечение,контракт,09.04.04 Программная инженерия,новый,False
83,0,23,заочная,Системное и прикладное программное обеспечение,бюджет,09.04.04 Программная инженерия,старый,False
84,0,9,очная,Системное и прикладное программное обеспечение,контракт,09.04.04 Программная инженерия,старый,False
85,0,1,очная,Программирование и интернет-технологии,бюджет,09.04.04 Программная инженерия,новый,False
86,0,23,заочная,Программирование и интернет-технологии,контракт,09.04.04 Программная инженерия,новый,False
87,0,11,очная,Системное и прикладное программное обеспечение,контракт,09.04.04 Программная инженерия,старый,False
88,0,11,очная,Системное и прикладное программное обеспечение,бюджет,09.04.04 Программная инженерия,новый,False
89,0,23,заочная,Программирование и интернет-технологии,бюджет,09.04.04 Программная инженерия,новый,False
90,0,21,очная,Системное и прикладное программное обеспечение,бюджет,09.04.04 Программная инженерия,старый,False
91,0,10,очная,Программирование и интернет-технологии,контракт,09.04.04 Программная инженерия,старый,False
92,0,11,очная,Системное и прикладное программное обеспечение,бюджет,09.04.04 Программная инженерия,новый,False
93,0,7,заочная,Программирование и интернет-технологии,контракт,09.04.04 Программная инженерия,новый,False
94,0,13,заочная,Системное и прикладное программное обеспечение,бюджет,09.04.04 Программная инженерия,старый,False
95,0,19,очная,Программирование и интернет-технологии,бюджет,09.04.04 Программная инженерия,новый,False
96,0,11,очная,Системное и прикладное программное обеспечение,бюджет,09.04.04 Программная инженерия,новый,False
97,0,8,очная,Программирование и интернет-технологии,бюджет,09.04.04 Программная инженерия,новый,False
98,0,17,заочная,Программирование и интернет-технологии,бюджет,09.04.04 Программная инженерия,новый,False
99,0,9,заочная,Системное и прикладное программное обеспечение,контракт,09.04.04 Программная инженерия,новый,False
100,0,21,очная,Системное и прикладное программное обеспечение,бюджет,09.04.04 Программная инженерия,старый,False
101,0,1,заочная,Программирование и интернет-технологии,бюджет,09.04.04 Программная инженерия,старый,False
102,0,21,очная,Программирование и интернет-технологии,контракт,09.04.04 Программная инженерия,старый,False
103,0,8,заочная,Системное и прикладное программное обеспечение,бюджет,09.04.04 Программная инженерия,новый,False
104,0,1,очная,Системное и прикладное программное обеспечение,бюджет,09.04.04 Программная инженерия,старый,False
105,0,12,заочная,Программирование и интернет-технологии,контракт,09.04.04 Программная инженерия,старый,False
106,0,5,заочная,Системное и прикладное программное обеспечение,контракт,09.04.04 Программная инженерия,старый,False
107,0,22,заочная,Программирование и интернет-технологии,бюджет,09.04.04 Программная инженерия,новый,False
108,0,21,очная,Программирование и интернет-технологии,бюджет,09.04.04 Программная инженерия,старый,False
109,0,11,очная,Системное и прикладное программное обеспечение,бюджет,09.04.04 Программная инженерия,старый,False
110,0,9,очная,Системное и прикладное программное обеспечение,бюджет,09.04.04 Программная инженерия,старый,False
111,0,1,очная,Программирование и интернет-технологии,бюджет,09.04.04 Программная инженерия,старый,False
112,0,18,заочная,Программирование и интернет-технологии,контракт,09.04.04 Программная инженерия,старый,False
113,0,3,заочная,Программирование и интернет-технологии,контракт,09.04.04 Программная инженерия,новый,False
114,0,1,очная,Программирование и интернет-технологии,контракт,09.04.04 Программная инженерия,старый,False
115,0,22,заочная,Системное и прикладное программное обеспечение,контракт,09.04.04 Программная инженерия,старый,False
116,0,11,очная,Программирование и интернет-технологии,бюджет,09.04.04 Программная инженерия,старый,False
117,0,11,заочная,Системное и прикладное программное обеспечение,контракт,09.04.04 Программная инженерия,новый,False
118,0,1,очная,Системное и прикладное программное обеспечение,контракт,09.04.04 Программная инженерия,старый,False
119,0,1,очная,Программирование и интернет-технологии,бюджет,09.04.04 Программная инженерия,новый,False
120,0,11,очная,Системное и прикладное программное обеспечение,контракт,09.04.04 Программная инженерия,старый,False
121,0,14,заочная,Системное и прикладное программное обеспечение,бюджет,09.04.04 Программная инженерия,старый,False
122,0,14,заочная,Программирование и интернет-технологии,контракт,09.04.04 Программная инженерия,старый,False
123,0,21,очная,Системное и прикладное программное обеспечение,контракт,09.04.04 Программная инженерия,новый,False
124,0,11,очная,Системное и прикладное программное обеспечение,контракт,09.04.04 Программная инженерия,старый,False
125,0,14,заочная,Системное и прикладное программное обеспечение,контракт,09.04.04 Программная инженерия,новый,False
126,0,7,заочная,Программирование и интернет-технологии,бюджет,09.04.04 Программная инженерия,новый,False
127,0,7,заочная,Системное и прикладное программное обеспечение,контракт,09.04.04 Программная инженерия,старый,False
128,0,21,очная,Программирование и интернет-технологии,контракт,09.04.04 Программная инженерия,новый,False
129,0,11,очная,Программирование и интернет-технологии,контракт,09.04.04 Программная инженерия,новый,False
130,0,1,очная,Системное и прикладное программное обеспечение,контракт,09.04.04 Программная инженерия,старый,False
131,0,11,очная,Системное и прикладное программное обеспечение,бюджет,09.04.04 Программная инженерия,новый,False
132,0,1,очная,Программирование и интернет-технологии,контракт,09.04.04 Программная инженерия,новый,False
133,0,10,заочная,Системное и прикладное программное обеспечение,контракт,09.04.04 Программная инженерия,новый,False
134,0,1,очная,Системное и прикладное программное обеспечение,контракт,09.04.04 Программная инженерия,новый,False
135,0,10,очная,Программирование и интернет-технологии,контракт,09.04.04 Программная инженерия,новый,False
136,0,18,очная,Системное и прикладное программное обеспечение,контракт,09.04.04 Программная инженерия,старый,False
137,0,21,очная,Системное и прикладное программное обеспечение,бюджет,09.04.04 Программная инженерия,старый,False
138,0,21,очная,Программирование и интернет-технологии,бюджет,09.04.04 Программная инженерия,старый,False
139,0,23,заочная,Программирование и интернет-технологии,контракт,09.04.04 Программная инженерия,новый,False
140,0,1,очная,Системное и прикладное программное обеспечение,контракт,09.04.04 Программная инженерия,новый,False
141,0,19,очная,Программирование и интернет-технологии,бюджет,09.04.04 Программная инженерия,новый,False
142,0,11,очная,Системное и прикладное программное обеспечение,контракт,09.04.04 Программная инженерия,старый,False
143,0,11,очная,Системное и прикладное программное обеспечение,бюджет,09.04.04 Программная инженерия,новый,False
144,0,10,заочная,Программирование и интернет-технологии,контракт,09.04.04 Программная инженерия,новый,False
145,0,21,заочная,Программирование и интернет-технологии,контракт,09.04.04 Программная инженерия,новый,False
146,0,14,заочная,Системное и прикладное программное обеспечение,контракт,09.04.04 Программная инженерия,старый,False
147,0,21,очная,Программирование и интернет-технологии,контракт,09.04.04 Программная инженерия,старый,False
148,0,18,очная,Системное и прикладное программное обеспечение,контракт,09.04.04 Программная инженерия,новый,False
149,0,11,очная,Программирование и интернет-технологии,бюджет,09.04.04 Программная инженерия,новый,False
150,0,11,очная,Системное и прикладное программное обеспечение,бюджет,09.04.04 Программная инженерия,новый,False
151,0,25,заочная,Программирование и интернет-технологии,контракт,09.04.04 Программная инженерия,новый,False
152,0,1,очная,Системное и прикладное программное обеспечение,контракт,09.04.04 Программная инженерия,старый,False
153,0,21,заочная,Программирование и интернет-технологии,бюджет,09.04.04 Программная инженерия,старый,False
154,0,2,заочная,Программирование и интернет-технологии,контракт,09.04.04 Программная инженерия,новый,False
155,0,11,заочная,Программирование и интернет-технологии,контракт,09.04.04 Программная инженерия,новый,False
156,0,18,очная,Системное и прикладное программное обеспечение,контракт,09.04.04 Программная инженерия,новый,False
157,0,4,заочная,Программирование и интернет-технологии,бюджет,09.04.04 Программная инженерия,старый,False
158,0,12,заочная,Системное и прикладное программное обеспечение,бюджет,09.04.04 Программная инженерия,старый,False
159,0,20,заочная,Программирование и интернет-технологии,бюджет,09.04.04 Программная инженерия,новый,False
160,0,11,очная,Системное и прикладное программное обеспечение,бюджет,09.04.04 Программная инженерия,новый,False
161,0,20,очная,Программирование и интернет-технологии,бюджет,09.04.04 Программная инженерия,новый,False
162,0,11,очная,Системное и прикладное программное обеспечение,бюджет,09.04.04 Программная инженерия,старый,False
163,0,9,заочная,Программирование и интернет-технологии,бюджет,09.04.04 Программная инженерия,новый,False
164,0,1,заочная,Программирование и интернет-технологии,контракт,09.04.04 Программная инженерия,новый,False
165,0,16,заочная,Системное и прикладное программное обеспечение,бюджет,09.04.04 Программная инженерия,новый,False
166,0,2,заочная,Программирование и интернет-технологии,бюджет,09.04.04 Программная инженерия,новый,False
167,0,9,очная,Системное и прикладное программное обеспечение,бюджет,09.04.04 Программная инженерия,старый,False
168,0,7,заочная,Программирование и интернет-технологии,контракт,09.04.04 Программная инженерия,старый,False
169,0,19,очная,Системное и прикладное программное обеспечение,бюджет,09.04.04 Программная инженерия,старый,False
170,0,14,заочная,Системное и прикладное программное обеспечение,контракт,09.04.04 Программная инженерия,новый,False
171,0,8,заочная,Программирование и интернет-технологии,контракт,09.04.04 Программная инженерия,старый,False
172,0,22,заочная,Системное и прикладное программное обеспечение,контракт,09.04.04 Программная инженерия,новый,False
173,0,17,заочная,Программирование и интернет-технологии,бюджет,09.04.04 Программная инженерия,новый,False
174,0,10,заочная,Программирование и интернет-технологии,бюджет,09.04.04 Программная инженерия,старый,False
175,0,15,заочная,Программирование и интернет-технологии,бюджет,09.04.04 Программная инженерия,новый,False
176,0,11,очная,Системное и прикладное программное обеспечение,контракт,09.04.04 Программная инженерия,старый,False
177,0,10,заочная,Системное и прикладное программное обеспечение,бюджет,09.04.04 Программная инженерия,старый,False
178,0,15,заочная,Системное и прикладное программное обеспечение,бюджет,09.04.04 Программная инженерия,старый,False
179,0,16,заочная,Системное и прикладное программное обеспечение,контракт,09.04.04 Программная инженерия,старый,False
180,0,7,заочная,Системное и прикладное программное обеспечение,бюджет,09.04.04 Программная инженерия,новый,False
181,0,2,заочная,Программирование и интернет-технологии,бюджет,09.04.04 Программная инженерия,новый,False
182,0,22,заочная,Системное и прикладное программное обеспечение,бюджет,09.04.04 Программная инженерия,старый,False
183,0,11,очная,Системное и прикладное программное обеспечение,бюджет,09.04.04 Программная инженерия,старый,False
184,0,1,очная,Системное и прикладное программное обеспечение,бюджет,09.04.04 Программная инженерия,новый,False
185,0,24,заочная,Системное и прикладное программное обеспечение,контракт,09.04.04 Программная инженерия,новый,False
186,0,15,заочная,Программирование и интернет-технологии,бюджет,09.04.04 Программная инженерия,новый,False
187,0,1,очная,Системное и прикладное программное обеспечение,бюджет,09.04.04 Программная инженерия,новый,False
188,0,17,заочная,Системное и прикладное программное обеспечение,контракт,09.04.04 Программная инженерия,новый,False
189,0,11,очная,Программирование и интернет-технологии,бюджет,09.04.04 Программная инженерия,новый,False
190,0,10,очная,Программирование и интернет-технологии,бюджет,09.04.04 Программная инженерия,старый,False
191,0,21,очная,Программирование и интернет-технологии,бюджет,09.04.04 Программная инженерия,старый,False
192,0,21,очная,Системное и прикладное программное обеспечение,бюджет,09.04.04 Программная инженерия,новый,False
193,0,19,очная,Системное и прикладное программное обеспечение,бюджет,09.04.04 Программная инженерия,новый,False
194,0,11,очная,Программирование и интернет-технологии,бюджет,09.04.04 Программная инженерия,старый,False
195,0,11,очная,Программирование и интернет-технологии,бюджет,09.04.04 Программная инженерия,старый,False
196,0,21,очная,Системное и прикладное программное обеспечение,контракт,09.04.04 Программная инженерия,новый,False
197,0,11,очная,Системное и прикладное программное обеспечение,бюджет,09.04.04 Программная инженерия,новый,False
198,0,7,заочная,Программирование и интернет-технологии,контракт,09.04.04 Программная инженерия,новый,False
199,0,14,заочная,Системное и прикладное программное обеспечение,контракт,09.04.04 Программная инженерия,новый,False
200,0,1,очная,Системное и прикладное программное обеспечение,бюджет,09.04.04 Программная инженерия,новый,False
201,0,1,заочная,Программирование и интернет-технологии,бюджет,09.04.04 Программная инженерия,новый,False
202,0,24,заочная,Системное и прикладное программное обеспечение,бюджет,09.04.04 Программная инженерия,старый,False
203,0,11,очная,Программирование и интернет-технологии,контракт,09.04.04 Программная инженерия,старый,False
204,0,1,очная,Системное и прикладное программное обеспечение,бюджет,09.04.04 Программная инженерия,старый,False
205,0,2,заочная,Системное и прикладное программное обеспечение,бюджет,09.04.04 Программная инженерия,старый,False
206,0,11,очная,Системное и прикладное программное обеспечение,бюджет,09.04.04 Программная инженерия,новый,False
207,0,20,очная,Программирование и интернет-технологии,контракт,09.04.04 Программная инженерия,новый,False
208,0,5,заочная,Системное и прикладное программное обеспечение,бюджет,09.04.04 Программная инженерия,старый,False
209,0,10,очная,Системное и прикладное программное обеспечение,контракт,09.04.04 Программная инженерия,новый,False
210,0,1,очная,Программирование и интернет-технологии,бюджет,09.04.04 Программная инженерия,новый,False
211,0,16,заочная,Системное и прикладное программное обеспечение,бюджет,09.04.04 Программная инженерия,новый,False
212,0,24,заочная,Системное и прикладное программное обеспечение,бюджет,09.04.04 Программная инженерия,новый,False
213,0,24,заочная,Программирование и интернет-технологии,бюджет,09.04.04 Программная инженерия,новый,False
214,0,9,очная,Системное и прикладное программное обеспечение,бюджет,09.04.04 Программная инженерия,старый,False
215,0,4,заочная,Программирование и интернет-технологии,бюджет,09.04.04 Программная инженерия,старый,False
216,0,5,заочная,Системное и прикладное программное обеспечение,бюджет,09.04.04 Программная инженерия,старый,False
217,0,12,заочная,Программирование и интернет-технологии,бюджет,09.04.04 Программная инженерия,новый,False
218,0,11,заочная,Программирование и интернет-технологии,контракт,09.04.04 Программная инженерия,новый,False
219,0,3,заочная,Программирование и интернет-технологии,бюджет,09.04.04 Программная инженерия,старый,False
220,0,1,очная,Программирование и интернет-технологии,контракт,09.04.04 Программная инженерия,старый,False
221,0,21,очная,Программирование и интернет-технологии,бюджет,09.04.04 Программная инженерия,старый,False
222,0,18,заочная,Системное и прикладное программное обеспечение,бюджет,09.04.04 Программная инженерия,новый,False
223,0,9,заочная,Программирование и интернет-технологии,бюджет,09.04.04 Программная инженерия,старый,False
224,0,11,очная,Программирование и интернет-технологии,контракт,09.04.04 Программная инженерия,новый,False
225,0,22,заочная,Системное и прикладное программное обеспечение,контракт,09.04.04 Программная инженерия,новый,False
226,0,15,заочная,Программирование и интернет-технологии,бюджет,09.04.04 Программная инженерия,старый,False
227,0,21,очная,Программирование и интернет-технологии,контракт,09.04.04 Программная инженерия,старый,False
228,0,1,заочная,Программирование и интернет-технологии,контракт,09.04.04 Программная инженерия,новый,False
229,0,22,заочная,Программирование и интернет-технологии,бюджет,09.04.04 Программная инженерия,новый,False
230,0,11,очная,Программирование и интернет-технологии,бюджет,09.04.04 Программная инженерия,новый,False
231,0,13,заочная,Программирование и интернет-технологии,контракт,09.04.04 Программная инженерия,новый,False
232,0,19,заочная,Программирование и интернет-технологии,бюджет,09.04.04 Программная инженерия,новый,False
233,0,7,очная,Системное и прикладное программное обеспечение,бюджет,09.04.04 Программная инженерия,старый,False
234,0,1,очная,Программирование и интернет-технологии,бюджет,09.04.04 Программная инженерия,новый,False
235,0,21,заочная,Системное и прикладное программное обеспечение,бюджет,09.04.04 Программная инженерия,новый,False
236,0,18,очная,Программирование и интернет-технологии,бюджет,09.04.04 Программная инженерия,старый,False
237,0,15,заочная,Системное и прикладное программное обеспечение,бюджет,09.04.04 Программная инженерия,старый,False
238,0,17,заочная,Программирование и интернет-технологии,контракт,09.04.04 Программная инженерия,старый,False
239,0,20,заочная,Программирование и интернет-технологии,бюджет,09.04.04 Программная инженерия,новый,False
240,0,20,заочная,Программирование и интернет-технологии,бюджет,09.04.04 Программная инженерия,старый,False
241,0,1,очная,Системное и прикладное программное обеспечение,бюджет,09.04.04 Программная инженерия,новый,False
242,0,21,очная,Системное и прикладное программное обеспечение,бюджет,09.04.04 Программная инженерия,новый,False
243,0,10,очная,Системное и прикладное программное обеспечение,контракт,09.04.04 Программная инженерия,новый,False
244,0,17,очная,Программирование и интернет-технологии,бюджет,09.04.04 Программная инженерия,старый,False
245,0,6,заочная,Системное и прикладное программное обеспечение,бюджет,09.04.04 Программная инженерия,старый,False
246,0,9,очная,Программирование и интернет-технологии,бюджет,09.04.04 Программная инженерия,старый,False
247,0,13,заочная,Программирование и интернет-технологии,контракт,09.04.04 Программная инженерия,новый,False
248,0,17,очная,Системное и прикладное программное обеспечение,контракт,09.04.04 Программная инженерия,новый,False
249,0,21,очная,Программирование и интернет-технологии,бюджет,09.04.04 Программная инженерия,старый,False
250,0,18,заочная,Системное и прикладное программное обеспечение,бюджет,09.04.04 Программная инженерия,старый,False
